%YAML 1.1
%TAG !u! tag:unity3d.com,2011:
--- !u!114 &11400000
MonoBehaviour:
  m_ObjectHideFlags: 0
  m_PrefabParentObject: {fileID: 0}
  m_PrefabInternal: {fileID: 0}
  m_GameObject: {fileID: 0}
  m_Enabled: 1
  m_EditorHideFlags: 0
  m_Script: {fileID: 11500000, guid: 8a3bdb2cd68f901469e7cc149151eb49, type: 3}
  m_Name: 180414
  m_EditorClassIdentifier: 
  debugViews:
    m_Enabled: 1
    m_Settings:
      mode: 0
      depth:
        scale: 1
      motionVectors:
        sourceOpacity: 1
        motionImageOpacity: 0
        motionImageAmplitude: 16
        motionVectorsOpacity: 1
        motionVectorsResolution: 24
        motionVectorsAmplitude: 64
  fog:
    m_Enabled: 1
    m_Settings:
      excludeSkybox: 1
  antialiasing:
    m_Enabled: 1
    m_Settings:
      method: 0
      fxaaSettings:
        preset: 3
      taaSettings:
        jitterSpread: 0.412
        sharpen: 0
        stationaryBlending: 0.99
        motionBlending: 0
  ambientOcclusion:
    m_Enabled: 1
    m_Settings:
      intensity: 0.6
      radius: 0.39
      sampleCount: 16
      downsampling: 0
      forceForwardCompatibility: 1
      ambientOnly: 0
      highPrecision: 1
  screenSpaceReflection:
    m_Enabled: 0
    m_Settings:
      reflection:
        blendType: 0
        reflectionQuality: 2
        maxDistance: 100
        iterationCount: 256
        stepSize: 3
        widthModifier: 0.5
        reflectionBlur: 1
        reflectBackfaces: 0
      intensity:
        reflectionMultiplier: 1
        fadeDistance: 100
        fresnelFade: 1
        fresnelFadePower: 1
      screenEdgeMask:
        intensity: 0.03
  depthOfField:
    m_Enabled: 0
    m_Settings:
      focusDistance: 2.83
      aperture: 32
      focalLength: 224
      useCameraFov: 0
      kernelSize: 2
  motionBlur:
    m_Enabled: 0
    m_Settings:
      shutterAngle: 270
      sampleCount: 10
      frameBlending: 0
  eyeAdaptation:
    m_Enabled: 1
    m_Settings:
      lowPercent: 88.15921
      highPercent: 99
      minLuminance: -8.39
      maxLuminance: -1.83
      keyValue: 0.25
      dynamicKeyValue: 1
      adaptationType: 0
      speedUp: 1.67
      speedDown: 1
      logMin: -16
      logMax: 5
  bloom:
    m_Enabled: 1
    m_Settings:
      bloom:
        intensity: 0.13
        threshold: 2
        softKnee: 0.5
        radius: 5.82
        antiFlicker: 1
      lensDirt:
        texture: {fileID: 2800000, guid: 3884f7a2d04ffe8409ad9200b275896f, type: 3}
        intensity: 4.2
  colorGrading:
    m_Enabled: 1
    m_Settings:
      tonemapping:
        tonemapper: 1
        neutralBlackIn: 0.02
        neutralWhiteIn: 10
        neutralBlackOut: 0
        neutralWhiteOut: 10
        neutralWhiteLevel: 5.3
        neutralWhiteClip: 10
      basic:
        postExposure: 1.03
        temperature: 2
        tint: 3.6
        hueShift: 0
        saturation: 0.98
        contrast: 0.809
      channelMixer:
        red: {x: 1, y: 0.05, z: 0.03}
        green: {x: 0, y: 1, z: 0}
        blue: {x: 0, y: 0, z: 1}
        currentEditingChannel: 0
      colorWheels:
        mode: 1
        log:
          slope: {r: 0.7529742, g: 0.8202155, b: 1, a: 0.016129032}
          power: {r: 1, g: 1, b: 1, a: 0.11290322}
          offset: {r: 1, g: 1, b: 1, a: -0.032258064}
        linear:
          lift: {r: 1, g: 1, b: 1, a: 0}
          gamma: {r: 1, g: 1, b: 1, a: 0}
          gain: {r: 1, g: 1, b: 1, a: 0}
      curves:
        master:
          curve:
            serializedVersion: 2
            m_Curve:
            - serializedVersion: 2
              time: 0
              value: 0
              inSlope: 0
              outSlope: 1
              tangentMode: 0
            - serializedVersion: 2
              time: 1
              value: 1
              inSlope: 1
              outSlope: 0
              tangentMode: 0
            m_PreInfinity: 2
            m_PostInfinity: 2
            m_RotationOrder: 0
          m_Loop: 0
          m_ZeroValue: 0
          m_Range: 1
        red:
          curve:
            serializedVersion: 2
            m_Curve:
            - serializedVersion: 2
              time: 0
              value: 0
              inSlope: 0
              outSlope: 0.81087494
              tangentMode: 0
            - serializedVersion: 2
              time: 1
              value: 1
              inSlope: 0.8453133
              outSlope: 0
              tangentMode: 0
            m_PreInfinity: 2
            m_PostInfinity: 2
            m_RotationOrder: 0
          m_Loop: 0
          m_ZeroValue: 0
          m_Range: 1
        green:
          curve:
            serializedVersion: 2
            m_Curve:
            - serializedVersion: 2
              time: 0
              value: 0
              inSlope: 0
              outSlope: 0.8453133
              tangentMode: 0
            - serializedVersion: 2
              time: 1
              value: 1
              inSlope: 1
              outSlope: 0
              tangentMode: 0
            m_PreInfinity: 2
            m_PostInfinity: 2
            m_RotationOrder: 0
          m_Loop: 0
          m_ZeroValue: 0
          m_Range: 1
        blue:
          curve:
            serializedVersion: 2
            m_Curve:
            - serializedVersion: 2
              time: 0
              value: 0
              inSlope: 1
              outSlope: 1
              tangentMode: 0
            - serializedVersion: 2
              time: 1
              value: 1
              inSlope: 1
              outSlope: 1
              tangentMode: 0
            m_PreInfinity: 2
            m_PostInfinity: 2
            m_RotationOrder: 4
          m_Loop: 0
          m_ZeroValue: 0
          m_Range: 1
        hueVShue:
          curve:
            serializedVersion: 2
            m_Curve: []
            m_PreInfinity: 2
            m_PostInfinity: 2
            m_RotationOrder: 4
          m_Loop: 1
          m_ZeroValue: 0.5
          m_Range: 1
        hueVSsat:
          curve:
            serializedVersion: 2
            m_Curve: []
            m_PreInfinity: 2
            m_PostInfinity: 2
            m_RotationOrder: 4
          m_Loop: 1
          m_ZeroValue: 0.5
          m_Range: 1
        satVSsat:
          curve:
            serializedVersion: 2
            m_Curve: []
            m_PreInfinity: 2
            m_PostInfinity: 2
            m_RotationOrder: 4
          m_Loop: 0
          m_ZeroValue: 0.5
          m_Range: 1
        lumVSsat:
          curve:
            serializedVersion: 2
            m_Curve: []
            m_PreInfinity: 2
            m_PostInfinity: 2
            m_RotationOrder: 4
          m_Loop: 0
          m_ZeroValue: 0.5
          m_Range: 1
        e_CurrentEditingCurve: 0
        e_CurveY: 1
        e_CurveR: 1
        e_CurveG: 1
        e_CurveB: 0
  userLut:
    m_Enabled: 0
    m_Settings:
      lut: {fileID: 0}
      contribution: 1
  chromaticAberration:
    m_Enabled: 1
    m_Settings:
      spectralTexture: {fileID: 0}
      intensity: 0.165
  grain:
    m_Enabled: 0
    m_Settings:
      colored: 1
      intensity: 0.182
      size: 1.442
      luminanceContribution: 1
  vignette:
    m_Enabled: 1
    m_Settings:
      mode: 0
      color: {r: 0.0759083, g: 0.18658276, b: 0.2647059, a: 1}
      center: {x: 0.5, y: 0.5}
      intensity: 0.445
      smoothness: 0.401
      roundness: 0.644
      mask: {fileID: 0}
      opacity: 1
      rounded: 0
  dithering:
    m_Enabled: 0
  monitors:
    currentMonitorID: 0
    refreshOnPlay: 0
    histogramMode: 3
    waveformExposure: 0.12
    waveformY: 0
    waveformR: 1
    waveformG: 1
    waveformB: 1
    paradeExposure: 0.12
    vectorscopeExposure: 0.12
    vectorscopeShowBackground: 1
