%YAML 1.1
%TAG !u! tag:unity3d.com,2011:
--- !u!1001 &100100000
Prefab:
  m_ObjectHideFlags: 1
  serializedVersion: 2
  m_Modification:
    m_TransformParent: {fileID: 0}
    m_Modifications: []
    m_RemovedComponents: []
  m_ParentPrefab: {fileID: 0}
  m_RootGameObject: {fileID: 1671954107692084}
  m_IsPrefabParent: 1
--- !u!1 &1671954107692084
GameObject:
  m_ObjectHideFlags: 0
  m_PrefabParentObject: {fileID: 0}
  m_PrefabInternal: {fileID: 100100000}
  serializedVersion: 5
  m_Component:
  - component: {fileID: 4140410937212092}
  - component: {fileID: 220130408966146262}
  m_Layer: 0
  m_Name: P_Light Probe Group
  m_TagString: Untagged
  m_Icon: {fileID: 0}
  m_NavMeshLayer: 0
  m_StaticEditorFlags: 0
  m_IsActive: 1
--- !u!4 &4140410937212092
Transform:
  m_ObjectHideFlags: 1
  m_PrefabParentObject: {fileID: 0}
  m_PrefabInternal: {fileID: 100100000}
  m_GameObject: {fileID: 1671954107692084}
  m_LocalRotation: {x: 0, y: 0, z: 0, w: 1}
  m_LocalPosition: {x: 6.49, y: 0.94, z: -6.244}
  m_LocalScale: {x: 1, y: 1, z: 1}
  m_Children: []
  m_Father: {fileID: 0}
  m_RootOrder: 0
  m_LocalEulerAnglesHint: {x: 0, y: 0, z: 0}
--- !u!220 &220130408966146262
LightProbeGroup:
  m_ObjectHideFlags: 1
  m_PrefabParentObject: {fileID: 0}
  m_PrefabInternal: {fileID: 100100000}
  m_GameObject: {fileID: 1671954107692084}
  m_Enabled: 1
  m_SourcePositions:
  - {x: -18.05592, y: 3.4262333, z: 9.591262}
  - {x: -18.05592, y: 3.4262333, z: 7.591262}
  - {x: -18.05592, y: 1.65205, z: 9.591262}
  - {x: -18.05592, y: 1.65205, z: 7.591262}
  - {x: -20.05592, y: 3.4262333, z: 9.591262}
  - {x: -20.05592, y: 3.4262333, z: 7.591262}
  - {x: -20.05592, y: 1.65205, z: 9.591262}
  - {x: -20.05592, y: 1.65205, z: 7.591262}
  - {x: -14.292396, y: 3.4262333, z: 9.591262}
  - {x: -14.292396, y: 3.4262333, z: 7.591262}
  - {x: -14.292396, y: 1.65205, z: 9.591262}
  - {x: -14.292396, y: 1.65205, z: 7.591262}
  - {x: -16.292395, y: 3.4262333, z: 9.591262}
  - {x: -16.292395, y: 3.4262333, z: 7.591262}
  - {x: -16.292395, y: 1.65205, z: 9.591262}
  - {x: -16.292395, y: 1.65205, z: 7.591262}
  - {x: -2.7635236, y: 3.4262333, z: 9.591262}
  - {x: -2.7635236, y: 3.4262333, z: 7.591262}
  - {x: -2.7635236, y: -1, z: 9.591262}
  - {x: -2.7635236, y: -1, z: 7.591262}
  - {x: -4.7635236, y: 3.4262333, z: 9.591262}
  - {x: -4.7635236, y: 3.4262333, z: 7.591262}
  - {x: -4.7635236, y: -1, z: 9.591262}
  - {x: -4.7635236, y: -1, z: 7.591262}
  - {x: 1, y: 3.4262333, z: 9.591262}
  - {x: 1, y: 3.4262333, z: 7.591262}
  - {x: 1, y: -1, z: 9.591262}
  - {x: 1, y: -1, z: 7.591262}
  - {x: -1, y: 3.4262333, z: 9.591262}
  - {x: -1, y: 3.4262333, z: 7.591262}
  - {x: -1, y: -1, z: 9.591262}
  - {x: -1, y: -1, z: 7.591262}
  - {x: -10.462725, y: 3.4262333, z: 9.591262}
  - {x: -10.462725, y: 3.4262333, z: 7.591262}
  - {x: -10.462725, y: 1.65205, z: 9.591262}
  - {x: -10.462725, y: 1.65205, z: 7.591262}
  - {x: -12.462725, y: 3.4262333, z: 9.591262}
  - {x: -12.462725, y: 3.4262333, z: 7.591262}
  - {x: -12.462725, y: 1.65205, z: 9.591262}
  - {x: -12.462725, y: 1.65205, z: 7.591262}
  - {x: -6.699201, y: 3.4262333, z: 9.591262}
  - {x: -6.699201, y: 3.4262333, z: 7.591262}
  - {x: -6.699201, y: -1, z: 9.591262}
  - {x: -6.699201, y: -1, z: 7.591262}
  - {x: -8.699201, y: 3.4262333, z: 9.591262}
  - {x: -8.699201, y: 3.4262333, z: 7.591262}
  - {x: -8.699201, y: 1.65205, z: 9.591262}
  - {x: -8.699201, y: 1.65205, z: 7.591262}
  - {x: -10.462725, y: 3.4262333, z: 1}
  - {x: -10.462725, y: 3.4262333, z: -1}
  - {x: -10.462725, y: 1.65205, z: 1}
  - {x: -10.462725, y: 1.65205, z: -1}
  - {x: -12.462725, y: 1.65205, z: 1}
  - {x: -12.462725, y: 1.65205, z: -1}
  - {x: -6.699201, y: 3.4262333, z: 1}
  - {x: -6.699201, y: 3.4262333, z: -1}
  - {x: -8.699201, y: 3.4262333, z: 1}
  - {x: -8.699201, y: 3.4262333, z: -1}
  - {x: -8.699201, y: 1.65205, z: 1}
  - {x: -8.699201, y: 1.65205, z: -1}
  - {x: -4.7635236, y: 3.4262333, z: 1}
  - {x: -4.7635236, y: 3.4262333, z: -1}
  - {x: -4.7635236, y: -1, z: 1}
  - {x: -4.7635236, y: -1, z: -1}
  - {x: -6.699201, y: -1, z: 1}
  - {x: -6.699201, y: -1, z: -1}
  - {x: -2.7635236, y: 3.4262333, z: 1}
  - {x: -2.7635236, y: 3.4262333, z: -1}
  - {x: -2.7635236, y: -1, z: 1}
  - {x: -2.7635236, y: -1, z: -1}
  - {x: 1, y: 3.4262333, z: 1}
  - {x: 1, y: 3.4262333, z: -1}
  - {x: 1, y: -1, z: 1}
  - {x: 1, y: -1, z: -1}
  - {x: -1, y: 3.4262333, z: 1}
  - {x: -1, y: 3.4262333, z: -1}
  - {x: -1, y: -1, z: 1}
  - {x: -1, y: -1, z: -1}
  - {x: -18.05592, y: 3.4262333, z: 1}
  - {x: -18.05592, y: 3.4262333, z: -1}
  - {x: -18.05592, y: 1.65205, z: 1}
  - {x: -18.05592, y: 1.65205, z: -1}
  - {x: -20.05592, y: 3.4262333, z: 1}
  - {x: -20.05592, y: 3.4262333, z: -1}
  - {x: -20.05592, y: 1.65205, z: 1}
  - {x: -20.05592, y: 1.65205, z: -1}
  - {x: -14.292396, y: 3.4262333, z: 1}
  - {x: -14.292396, y: 3.4262333, z: -1}
  - {x: -14.292396, y: 1.65205, z: 1}
  - {x: -14.292396, y: 1.65205, z: -1}
  - {x: -16.292395, y: 3.4262333, z: 1}
  - {x: -16.292395, y: 3.4262333, z: -1}
  - {x: -16.292395, y: 1.65205, z: 1}
  - {x: -16.292395, y: 1.65205, z: -1}
  - {x: -12.462725, y: 3.4262333, z: 1}
  - {x: -12.462725, y: 3.4262333, z: -1}
  - {x: -10.462725, y: 3.4262333, z: 5.1962786}
  - {x: -10.462725, y: 3.4262333, z: 3.1962786}
  - {x: -10.462725, y: 1.65205, z: 5.1962786}
  - {x: -10.462725, y: 1.65205, z: 3.1962786}
  - {x: -12.462725, y: 1.65205, z: 5.1962786}
  - {x: -12.462725, y: 1.65205, z: 3.1962786}
  - {x: -6.699201, y: 3.4262333, z: 5.1962786}
  - {x: -6.699201, y: 3.4262333, z: 3.1962786}
  - {x: -8.699201, y: 3.4262333, z: 5.1962786}
  - {x: -8.699201, y: 3.4262333, z: 3.1962786}
  - {x: -8.699201, y: 1.65205, z: 5.1962786}
  - {x: -8.699201, y: 1.65205, z: 3.1962786}
  - {x: -4.7635236, y: 3.4262333, z: 5.1962786}
  - {x: -4.7635236, y: 3.4262333, z: 3.1962786}
  - {x: -4.7635236, y: -1, z: 5.1962786}
  - {x: -4.7635236, y: -1, z: 3.1962786}
  - {x: -6.699201, y: -1, z: 5.1962786}
  - {x: -6.699201, y: -1, z: 3.1962786}
  - {x: -2.7635236, y: 3.4262333, z: 5.1962786}
  - {x: -2.7635236, y: 3.4262333, z: 3.1962786}
  - {x: -2.7635236, y: -1, z: 5.1962786}
  - {x: -2.7635236, y: -1, z: 3.1962786}
  - {x: 1, y: 3.4262333, z: 5.1962786}
  - {x: 1, y: 3.4262333, z: 3.1962786}
  - {x: 1, y: -1, z: 5.1962786}
  - {x: 1, y: -1, z: 3.1962786}
  - {x: -1, y: 3.4262333, z: 5.1962786}
  - {x: -1, y: 3.4262333, z: 3.1962786}
  - {x: -1, y: -1, z: 5.1962786}
  - {x: -1, y: -1, z: 3.1962786}
  - {x: -18.05592, y: 3.4262333, z: 5.1962786}
  - {x: -18.05592, y: 3.4262333, z: 3.1962786}
  - {x: -18.05592, y: 1.65205, z: 5.1962786}
  - {x: -18.05592, y: 1.65205, z: 3.1962786}
  - {x: -20.05592, y: 3.4262333, z: 5.1962786}
  - {x: -20.05592, y: 3.4262333, z: 3.1962786}
  - {x: -20.05592, y: 1.65205, z: 5.1962786}
  - {x: -20.05592, y: 1.65205, z: 3.1962786}
  - {x: -14.292396, y: 3.4262333, z: 5.1962786}
  - {x: -14.292396, y: 3.4262333, z: 3.1962786}
  - {x: -14.292396, y: 1.65205, z: 5.1962786}
  - {x: -14.292396, y: 1.65205, z: 3.1962786}
  - {x: -16.292395, y: 3.4262333, z: 5.1962786}
  - {x: -16.292395, y: 3.4262333, z: 3.1962786}
  - {x: -16.292395, y: 1.65205, z: 5.1962786}
  - {x: -16.292395, y: 1.65205, z: 3.1962786}
  - {x: -12.462725, y: 3.4262333, z: 5.1962786}
  - {x: -12.462725, y: 3.4262333, z: 3.1962786}
  - {x: -18.05592, y: 3.4262333, z: 9.591262}
  - {x: -18.05592, y: 3.4262333, z: 7.591262}
  - {x: -18.05592, y: 1.65205, z: 9.591262}
  - {x: -18.05592, y: 1.65205, z: 7.591262}
  - {x: -20.05592, y: 3.4262333, z: 9.591262}
  - {x: -20.05592, y: 3.4262333, z: 7.591262}
  - {x: -20.05592, y: 1.65205, z: 9.591262}
  - {x: -20.05592, y: 1.65205, z: 7.591262}
  - {x: -14.292396, y: 3.4262333, z: 9.591262}
  - {x: -14.292396, y: 3.4262333, z: 7.591262}
  - {x: -14.292396, y: 1.65205, z: 9.591262}
  - {x: -14.292396, y: 1.65205, z: 7.591262}
  - {x: -16.292395, y: 3.4262333, z: 9.591262}
  - {x: -16.292395, y: 3.4262333, z: 7.591262}
  - {x: -16.292395, y: 1.65205, z: 9.591262}
  - {x: -16.292395, y: 1.65205, z: 7.591262}
  - {x: -2.7635236, y: 3.4262333, z: 9.591262}
  - {x: -2.7635236, y: 3.4262333, z: 7.591262}
  - {x: -2.7635236, y: -1, z: 9.591262}
  - {x: -2.7635236, y: -1, z: 7.591262}
  - {x: -4.7635236, y: 3.4262333, z: 9.591262}
  - {x: -4.7635236, y: 3.4262333, z: 7.591262}
  - {x: -4.7635236, y: -1, z: 9.591262}
  - {x: -4.7635236, y: -1, z: 7.591262}
  - {x: 1, y: 3.4262333, z: 9.591262}
  - {x: 1, y: 3.4262333, z: 7.591262}
  - {x: 1, y: -1, z: 9.591262}
  - {x: 1, y: -1, z: 7.591262}
  - {x: -1, y: 3.4262333, z: 9.591262}
  - {x: -1, y: 3.4262333, z: 7.591262}
  - {x: -1, y: -1, z: 9.591262}
  - {x: -1, y: -1, z: 7.591262}
  - {x: -10.462725, y: 3.4262333, z: 9.591262}
  - {x: -10.462725, y: 3.4262333, z: 7.591262}
  - {x: -10.462725, y: 1.65205, z: 9.591262}
  - {x: -10.462725, y: 1.65205, z: 7.591262}
  - {x: -12.462725, y: 3.4262333, z: 9.591262}
  - {x: -12.462725, y: 3.4262333, z: 7.591262}
  - {x: -12.462725, y: 1.65205, z: 9.591262}
  - {x: -12.462725, y: 1.65205, z: 7.591262}
  - {x: -6.699201, y: 3.4262333, z: 9.591262}
  - {x: -6.699201, y: 3.4262333, z: 7.591262}
  - {x: -6.699201, y: -1, z: 9.591262}
  - {x: -6.699201, y: -1, z: 7.591262}
  - {x: -8.699201, y: 3.4262333, z: 9.591262}
  - {x: -8.699201, y: 3.4262333, z: 7.591262}
  - {x: -8.699201, y: 1.65205, z: 9.591262}
  - {x: -8.699201, y: 1.65205, z: 7.591262}
  - {x: -10.462725, y: 3.4262333, z: 1}
  - {x: -10.462725, y: 3.4262333, z: -1}
  - {x: -10.462725, y: 1.65205, z: 1}
  - {x: -10.462725, y: 1.65205, z: -1}
  - {x: -12.462725, y: 1.65205, z: 1}
  - {x: -12.462725, y: 1.65205, z: -1}
  - {x: -6.699201, y: 3.4262333, z: 1}
  - {x: -6.699201, y: 3.4262333, z: -1}
  - {x: -8.699201, y: 3.4262333, z: 1}
  - {x: -8.699201, y: 3.4262333, z: -1}
  - {x: -8.699201, y: 1.65205, z: 1}
  - {x: -8.699201, y: 1.65205, z: -1}
  - {x: -4.7635236, y: 3.4262333, z: 1}
  - {x: -4.7635236, y: 3.4262333, z: -1}
  - {x: -4.7635236, y: -1, z: 1}
  - {x: -4.7635236, y: -1, z: -1}
  - {x: -6.699201, y: -1, z: 1}
  - {x: -6.699201, y: -1, z: -1}
  - {x: -2.7635236, y: 3.4262333, z: 1}
  - {x: -2.7635236, y: 3.4262333, z: -1}
  - {x: -2.7635236, y: -1, z: 1}
  - {x: -2.7635236, y: -1, z: -1}
  - {x: 1, y: 3.4262333, z: 1}
  - {x: 1, y: 3.4262333, z: -1}
  - {x: 1, y: -1, z: 1}
  - {x: 1, y: -1, z: -1}
  - {x: -1, y: 3.4262333, z: 1}
  - {x: -1, y: 3.4262333, z: -1}
  - {x: -1, y: -1, z: 1}
  - {x: -1, y: -1, z: -1}
  - {x: -18.05592, y: 3.4262333, z: 1}
  - {x: -18.05592, y: 3.4262333, z: -1}
  - {x: -18.05592, y: 1.65205, z: 1}
  - {x: -18.05592, y: 1.65205, z: -1}
  - {x: -20.05592, y: 3.4262333, z: 1}
  - {x: -20.05592, y: 3.4262333, z: -1}
  - {x: -20.05592, y: 1.65205, z: 1}
  - {x: -20.05592, y: 1.65205, z: -1}
  - {x: -14.292396, y: 3.4262333, z: 1}
  - {x: -14.292396, y: 3.4262333, z: -1}
  - {x: -14.292396, y: 1.65205, z: 1}
  - {x: -14.292396, y: 1.65205, z: -1}
  - {x: -16.292395, y: 3.4262333, z: 1}
  - {x: -16.292395, y: 3.4262333, z: -1}
  - {x: -16.292395, y: 1.65205, z: 1}
  - {x: -16.292395, y: 1.65205, z: -1}
  - {x: -12.462725, y: 3.4262333, z: 1}
  - {x: -12.462725, y: 3.4262333, z: -1}
  - {x: -10.462725, y: 3.4262333, z: 5.1962786}
  - {x: -10.462725, y: 3.4262333, z: 3.1962786}
  - {x: -10.462725, y: 1.65205, z: 5.1962786}
  - {x: -10.462725, y: 1.65205, z: 3.1962786}
  - {x: -12.462725, y: 1.65205, z: 5.1962786}
  - {x: -12.462725, y: 1.65205, z: 3.1962786}
  - {x: -6.699201, y: 3.4262333, z: 5.1962786}
  - {x: -6.699201, y: 3.4262333, z: 3.1962786}
  - {x: -8.699201, y: 3.4262333, z: 5.1962786}
  - {x: -8.699201, y: 3.4262333, z: 3.1962786}
  - {x: -8.699201, y: 1.65205, z: 5.1962786}
  - {x: -8.699201, y: 1.65205, z: 3.1962786}
  - {x: -4.7635236, y: 3.4262333, z: 5.1962786}
  - {x: -4.7635236, y: 3.4262333, z: 3.1962786}
  - {x: -4.7635236, y: -1, z: 5.1962786}
  - {x: -4.7635236, y: -1, z: 3.1962786}
  - {x: -6.699201, y: -1, z: 5.1962786}
  - {x: -6.699201, y: -1, z: 3.1962786}
  - {x: -2.7635236, y: 3.4262333, z: 5.1962786}
  - {x: -2.7635236, y: 3.4262333, z: 3.1962786}
  - {x: -2.7635236, y: -1, z: 5.1962786}
  - {x: -2.7635236, y: -1, z: 3.1962786}
  - {x: 1, y: 3.4262333, z: 5.1962786}
  - {x: 1, y: 3.4262333, z: 3.1962786}
  - {x: 1, y: -1, z: 5.1962786}
  - {x: 1, y: -1, z: 3.1962786}
  - {x: -1, y: 3.4262333, z: 5.1962786}
  - {x: -1, y: 3.4262333, z: 3.1962786}
  - {x: -1, y: -1, z: 5.1962786}
  - {x: -1, y: -1, z: 3.1962786}
  - {x: -18.05592, y: 3.4262333, z: 5.1962786}
  - {x: -18.05592, y: 3.4262333, z: 3.1962786}
  - {x: -18.05592, y: 1.65205, z: 5.1962786}
  - {x: -18.05592, y: 1.65205, z: 3.1962786}
  - {x: -20.05592, y: 3.4262333, z: 5.1962786}
  - {x: -20.05592, y: 3.4262333, z: 3.1962786}
  - {x: -20.05592, y: 1.65205, z: 5.1962786}
  - {x: -20.05592, y: 1.65205, z: 3.1962786}
  - {x: -14.292396, y: 3.4262333, z: 5.1962786}
  - {x: -14.292396, y: 3.4262333, z: 3.1962786}
  - {x: -14.292396, y: 1.65205, z: 5.1962786}
  - {x: -14.292396, y: 1.65205, z: 3.1962786}
  - {x: -16.292395, y: 3.4262333, z: 5.1962786}
  - {x: -16.292395, y: 3.4262333, z: 3.1962786}
  - {x: -16.292395, y: 1.65205, z: 5.1962786}
  - {x: -16.292395, y: 1.65205, z: 3.1962786}
  - {x: -12.462725, y: 3.4262333, z: 5.1962786}
  - {x: -12.462725, y: 3.4262333, z: 3.1962786}
  - {x: -18.05592, y: 0.5482636, z: 9.591262}
  - {x: -18.05592, y: 0.5482636, z: 7.591262}
  - {x: -18.05592, y: -1.6775532, z: 9.591262}
  - {x: -18.05592, y: -1.6775532, z: 7.591262}
  - {x: -20.05592, y: 0.5482636, z: 9.591262}
  - {x: -20.05592, y: 0.5482636, z: 7.591262}
  - {x: -20.05592, y: -1.6775532, z: 9.591262}
  - {x: -20.05592, y: -1.6775532, z: 7.591262}
  - {x: -14.292396, y: 0.5482636, z: 9.591262}
  - {x: -14.292396, y: 0.5482636, z: 7.591262}
  - {x: -14.292396, y: -1.6775532, z: 9.591262}
  - {x: -14.292396, y: -1.6775532, z: 7.591262}
  - {x: -16.292395, y: 0.5482636, z: 9.591262}
  - {x: -16.292395, y: 0.5482636, z: 7.591262}
  - {x: -16.292395, y: -1.6775532, z: 9.591262}
  - {x: -16.292395, y: -1.6775532, z: 7.591262}
  - {x: -2.7635236, y: 0.32244688, z: 9.591262}
  - {x: -2.7635236, y: 0.32244688, z: 7.591262}
  - {x: -4.7635236, y: 0.32244688, z: 9.591262}
  - {x: -4.7635236, y: 0.32244688, z: 7.591262}
  - {x: 1, y: 0.32244688, z: 9.591262}
  - {x: 1, y: 0.32244688, z: 7.591262}
  - {x: -1, y: 0.32244688, z: 9.591262}
  - {x: -1, y: 0.32244688, z: 7.591262}
  - {x: -10.462725, y: 0.32244688, z: 9.591262}
  - {x: -10.462725, y: 0.32244688, z: 7.591262}
  - {x: -10.462725, y: -1.6775532, z: 9.591262}
  - {x: -10.462725, y: -1.6775532, z: 7.591262}
  - {x: -12.462725, y: 0.32244688, z: 9.591262}
  - {x: -12.462725, y: 0.32244688, z: 7.591262}
  - {x: -12.462725, y: -1.6775532, z: 9.591262}
  - {x: -12.462725, y: -1.6775532, z: 7.591262}
  - {x: -6.699201, y: 0.32244688, z: 9.591262}
  - {x: -6.699201, y: 0.32244688, z: 7.591262}
  - {x: -8.699201, y: 0.32244688, z: 9.591262}
  - {x: -8.699201, y: 0.32244688, z: 7.591262}
  - {x: -8.699201, y: -1.6775532, z: 9.591262}
  - {x: -8.699201, y: -1.6775532, z: 7.591262}
  - {x: -10.462725, y: 0.32244688, z: 1}
  - {x: -10.462725, y: 0.32244688, z: -1}
  - {x: -10.462725, y: -1.6775532, z: 1}
  - {x: -10.462725, y: -1.6775532, z: -1}
  - {x: -12.462725, y: -1.6775532, z: 1}
  - {x: -12.462725, y: -1.6775532, z: -1}
  - {x: -6.699201, y: 0.32244688, z: 1}
  - {x: -6.699201, y: 0.32244688, z: -1}
  - {x: -8.699201, y: 0.32244688, z: 1}
  - {x: -8.699201, y: 0.32244688, z: -1}
  - {x: -8.699201, y: -1.6775532, z: 1}
  - {x: -8.699201, y: -1.6775532, z: -1}
  - {x: -4.7635236, y: 0.32244688, z: 1}
  - {x: -4.7635236, y: 0.32244688, z: -1}
  - {x: -2.7635236, y: 0.32244688, z: 1}
  - {x: -2.7635236, y: 0.32244688, z: -1}
  - {x: 1, y: 0.32244688, z: 1}
  - {x: 1, y: 0.32244688, z: -1}
  - {x: -1, y: 0.32244688, z: 1}
  - {x: -1, y: 0.32244688, z: -1}
  - {x: -18.05592, y: 0.5482636, z: 1}
  - {x: -18.05592, y: 0.5482636, z: -1}
  - {x: -18.05592, y: -1.6775532, z: 1}
  - {x: -18.05592, y: -1.6775532, z: -1}
  - {x: -20.05592, y: 0.5482636, z: 1}
  - {x: -20.05592, y: 0.5482636, z: -1}
  - {x: -20.05592, y: -1.6775532, z: 1}
  - {x: -20.05592, y: -1.6775532, z: -1}
  - {x: -14.292396, y: 0.5482636, z: 1}
  - {x: -14.292396, y: 0.5482636, z: -1}
  - {x: -14.292396, y: -1.6775532, z: 1}
  - {x: -14.292396, y: -1.6775532, z: -1}
  - {x: -16.292395, y: 0.5482636, z: 1}
  - {x: -16.292395, y: 0.5482636, z: -1}
  - {x: -16.292395, y: -1.6775532, z: 1}
  - {x: -16.292395, y: -1.6775532, z: -1}
  - {x: -12.462725, y: 0.32244688, z: 1}
  - {x: -12.462725, y: 0.32244688, z: -1}
  - {x: -10.462725, y: 0.32244688, z: 5.1962786}
  - {x: -10.462725, y: 0.32244688, z: 3.1962786}
  - {x: -10.462725, y: -1.6775532, z: 5.1962786}
  - {x: -10.462725, y: -1.6775532, z: 3.1962786}
  - {x: -12.462725, y: -1.6775532, z: 5.1962786}
  - {x: -12.462725, y: -1.6775532, z: 3.1962786}
  - {x: -6.699201, y: 0.32244688, z: 5.1962786}
  - {x: -6.699201, y: 0.32244688, z: 3.1962786}
  - {x: -8.699201, y: 0.32244688, z: 5.1962786}
  - {x: -8.699201, y: 0.32244688, z: 3.1962786}
  - {x: -8.699201, y: -1.6775532, z: 5.1962786}
  - {x: -8.699201, y: -1.6775532, z: 3.1962786}
  - {x: -4.7635236, y: 0.32244688, z: 5.1962786}
  - {x: -4.7635236, y: 0.32244688, z: 3.1962786}
  - {x: -2.7635236, y: 0.32244688, z: 5.1962786}
  - {x: -2.7635236, y: 0.32244688, z: 3.1962786}
  - {x: 1, y: 0.32244688, z: 5.1962786}
  - {x: 1, y: 0.32244688, z: 3.1962786}
  - {x: -1, y: 0.32244688, z: 5.1962786}
  - {x: -1, y: 0.32244688, z: 3.1962786}
  - {x: -18.05592, y: 0.5482636, z: 5.1962786}
  - {x: -18.05592, y: 0.5482636, z: 3.1962786}
  - {x: -18.05592, y: -1.6775532, z: 5.1962786}
  - {x: -18.05592, y: -1.6775532, z: 3.1962786}
  - {x: -20.05592, y: 0.5482636, z: 5.1962786}
  - {x: -20.05592, y: 0.5482636, z: 3.1962786}
  - {x: -20.05592, y: -1.6775532, z: 5.1962786}
  - {x: -20.05592, y: -1.6775532, z: 3.1962786}
  - {x: -14.292396, y: 0.5482636, z: 5.1962786}
  - {x: -14.292396, y: 0.5482636, z: 3.1962786}
  - {x: -14.292396, y: -1.6775532, z: 5.1962786}
  - {x: -14.292396, y: -1.6775532, z: 3.1962786}
  - {x: -16.292395, y: 0.5482636, z: 5.1962786}
  - {x: -16.292395, y: 0.5482636, z: 3.1962786}
  - {x: -16.292395, y: -1.6775532, z: 5.1962786}
  - {x: -16.292395, y: -1.6775532, z: 3.1962786}
  - {x: -12.462725, y: 0.32244688, z: 5.1962786}
  - {x: -12.462725, y: 0.32244688, z: 3.1962786}
  - {x: -18.05592, y: 0.5482636, z: 9.591262}
  - {x: -18.05592, y: 0.5482636, z: 7.591262}
  - {x: -18.05592, y: -1.6775532, z: 9.591262}
  - {x: -18.05592, y: -1.6775532, z: 7.591262}
  - {x: -20.05592, y: 0.5482636, z: 9.591262}
  - {x: -20.05592, y: 0.5482636, z: 7.591262}
  - {x: -20.05592, y: -1.6775532, z: 9.591262}
  - {x: -20.05592, y: -1.6775532, z: 7.591262}
  - {x: -14.292396, y: 0.5482636, z: 9.591262}
  - {x: -14.292396, y: 0.5482636, z: 7.591262}
  - {x: -14.292396, y: -1.6775532, z: 9.591262}
  - {x: -14.292396, y: -1.6775532, z: 7.591262}
  - {x: -16.292395, y: 0.5482636, z: 9.591262}
  - {x: -16.292395, y: 0.5482636, z: 7.591262}
  - {x: -16.292395, y: -1.6775532, z: 9.591262}
  - {x: -16.292395, y: -1.6775532, z: 7.591262}
  - {x: -2.7635236, y: 0.32244688, z: 9.591262}
  - {x: -2.7635236, y: 0.32244688, z: 7.591262}
  - {x: -4.7635236, y: 0.32244688, z: 9.591262}
  - {x: -4.7635236, y: 0.32244688, z: 7.591262}
  - {x: 1, y: 0.32244688, z: 9.591262}
  - {x: 1, y: 0.32244688, z: 7.591262}
  - {x: -1, y: 0.32244688, z: 9.591262}
  - {x: -1, y: 0.32244688, z: 7.591262}
  - {x: -10.462725, y: 0.32244688, z: 9.591262}
  - {x: -10.462725, y: 0.32244688, z: 7.591262}
  - {x: -10.462725, y: -1.6775532, z: 9.591262}
  - {x: -10.462725, y: -1.6775532, z: 7.591262}
  - {x: -12.462725, y: 0.32244688, z: 9.591262}
  - {x: -12.462725, y: 0.32244688, z: 7.591262}
  - {x: -12.462725, y: -1.6775532, z: 9.591262}
  - {x: -12.462725, y: -1.6775532, z: 7.591262}
  - {x: -6.699201, y: 0.32244688, z: 9.591262}
  - {x: -6.699201, y: 0.32244688, z: 7.591262}
  - {x: -8.699201, y: 0.32244688, z: 9.591262}
  - {x: -8.699201, y: 0.32244688, z: 7.591262}
  - {x: -8.699201, y: -1.6775532, z: 9.591262}
  - {x: -8.699201, y: -1.6775532, z: 7.591262}
  - {x: -10.462725, y: 0.32244688, z: 1}
  - {x: -10.462725, y: 0.32244688, z: -1}
  - {x: -10.462725, y: -1.6775532, z: 1}
  - {x: -10.462725, y: -1.6775532, z: -1}
  - {x: -12.462725, y: -1.6775532, z: 1}
  - {x: -12.462725, y: -1.6775532, z: -1}
  - {x: -6.699201, y: 0.32244688, z: 1}
  - {x: -6.699201, y: 0.32244688, z: -1}
  - {x: -8.699201, y: 0.32244688, z: 1}
  - {x: -8.699201, y: 0.32244688, z: -1}
  - {x: -8.699201, y: -1.6775532, z: 1}
  - {x: -8.699201, y: -1.6775532, z: -1}
  - {x: -4.7635236, y: 0.32244688, z: 1}
  - {x: -4.7635236, y: 0.32244688, z: -1}
  - {x: -2.7635236, y: 0.32244688, z: 1}
  - {x: -2.7635236, y: 0.32244688, z: -1}
  - {x: 1, y: 0.32244688, z: 1}
  - {x: 1, y: 0.32244688, z: -1}
  - {x: -1, y: 0.32244688, z: 1}
  - {x: -1, y: 0.32244688, z: -1}
  - {x: -18.05592, y: 0.5482636, z: 1}
  - {x: -18.05592, y: 0.5482636, z: -1}
  - {x: -18.05592, y: -1.6775532, z: 1}
  - {x: -18.05592, y: -1.6775532, z: -1}
  - {x: -20.05592, y: 0.5482636, z: 1}
  - {x: -20.05592, y: 0.5482636, z: -1}
  - {x: -20.05592, y: -1.6775532, z: 1}
  - {x: -20.05592, y: -1.6775532, z: -1}
  - {x: -14.292396, y: 0.5482636, z: 1}
  - {x: -14.292396, y: 0.5482636, z: -1}
  - {x: -14.292396, y: -1.6775532, z: 1}
  - {x: -14.292396, y: -1.6775532, z: -1}
  - {x: -16.292395, y: 0.5482636, z: 1}
  - {x: -16.292395, y: 0.5482636, z: -1}
  - {x: -16.292395, y: -1.6775532, z: 1}
  - {x: -16.292395, y: -1.6775532, z: -1}
  - {x: -12.462725, y: 0.32244688, z: 1}
  - {x: -12.462725, y: 0.32244688, z: -1}
  - {x: -10.462725, y: 0.32244688, z: 5.1962786}
  - {x: -10.462725, y: 0.32244688, z: 3.1962786}
  - {x: -10.462725, y: -1.6775532, z: 5.1962786}
  - {x: -10.462725, y: -1.6775532, z: 3.1962786}
  - {x: -12.462725, y: -1.6775532, z: 5.1962786}
  - {x: -12.462725, y: -1.6775532, z: 3.1962786}
  - {x: -6.699201, y: 0.32244688, z: 5.1962786}
  - {x: -6.699201, y: 0.32244688, z: 3.1962786}
  - {x: -8.699201, y: 0.32244688, z: 5.1962786}
  - {x: -8.699201, y: 0.32244688, z: 3.1962786}
  - {x: -8.699201, y: -1.6775532, z: 5.1962786}
  - {x: -8.699201, y: -1.6775532, z: 3.1962786}
  - {x: -4.7635236, y: 0.32244688, z: 5.1962786}
  - {x: -4.7635236, y: 0.32244688, z: 3.1962786}
  - {x: -2.7635236, y: 0.32244688, z: 5.1962786}
  - {x: -2.7635236, y: 0.32244688, z: 3.1962786}
  - {x: 1, y: 0.32244688, z: 5.1962786}
  - {x: 1, y: 0.32244688, z: 3.1962786}
  - {x: -1, y: 0.32244688, z: 5.1962786}
  - {x: -1, y: 0.32244688, z: 3.1962786}
  - {x: -18.05592, y: 0.5482636, z: 5.1962786}
  - {x: -18.05592, y: 0.5482636, z: 3.1962786}
  - {x: -18.05592, y: -1.6775532, z: 5.1962786}
  - {x: -18.05592, y: -1.6775532, z: 3.1962786}
  - {x: -20.05592, y: 0.5482636, z: 5.1962786}
  - {x: -20.05592, y: 0.5482636, z: 3.1962786}
  - {x: -20.05592, y: -1.6775532, z: 5.1962786}
  - {x: -20.05592, y: -1.6775532, z: 3.1962786}
  - {x: -14.292396, y: 0.5482636, z: 5.1962786}
  - {x: -14.292396, y: 0.5482636, z: 3.1962786}
  - {x: -14.292396, y: -1.6775532, z: 5.1962786}
  - {x: -14.292396, y: -1.6775532, z: 3.1962786}
  - {x: -16.292395, y: 0.5482636, z: 5.1962786}
  - {x: -16.292395, y: 0.5482636, z: 3.1962786}
  - {x: -16.292395, y: -1.6775532, z: 5.1962786}
  - {x: -16.292395, y: -1.6775532, z: 3.1962786}
  - {x: -12.462725, y: 0.32244688, z: 5.1962786}
  - {x: -12.462725, y: 0.32244688, z: 3.1962786}
  - {x: -18.05592, y: 1.968914, z: 9.591262}
  - {x: -18.05592, y: 1.968914, z: 7.591262}
  - {x: -18.05592, y: -0.25690275, z: 9.591262}
  - {x: -18.05592, y: -0.25690275, z: 7.591262}
  - {x: -20.05592, y: 1.968914, z: 9.591262}
  - {x: -20.05592, y: 1.968914, z: 7.591262}
  - {x: -20.05592, y: -0.25690275, z: 9.591262}
  - {x: -20.05592, y: -0.25690275, z: 7.591262}
  - {x: -14.292396, y: 1.968914, z: 9.591262}
  - {x: -14.292396, y: 1.968914, z: 7.591262}
  - {x: -14.292396, y: -0.25690275, z: 9.591262}
  - {x: -14.292396, y: -0.25690275, z: 7.591262}
  - {x: -16.292395, y: 1.968914, z: 9.591262}
  - {x: -16.292395, y: 1.968914, z: 7.591262}
  - {x: -16.292395, y: -0.25690275, z: 9.591262}
  - {x: -16.292395, y: -0.25690275, z: 7.591262}
  - {x: -2.7635236, y: 1.968914, z: 9.591262}
  - {x: -2.7635236, y: 1.968914, z: 7.591262}
  - {x: -4.7635236, y: 1.968914, z: 9.591262}
  - {x: -4.7635236, y: 1.968914, z: 7.591262}
  - {x: 1, y: 1.968914, z: 9.591262}
  - {x: 1, y: 1.968914, z: 7.591262}
  - {x: -1, y: 1.968914, z: 9.591262}
  - {x: -1, y: 1.968914, z: 7.591262}
  - {x: -10.462725, y: 1.968914, z: 9.591262}
  - {x: -10.462725, y: 1.968914, z: 7.591262}
  - {x: -10.462725, y: -0.25690275, z: 9.591262}
  - {x: -10.462725, y: -0.25690275, z: 7.591262}
  - {x: -12.462725, y: 1.968914, z: 9.591262}
  - {x: -12.462725, y: 1.968914, z: 7.591262}
  - {x: -12.462725, y: -0.25690275, z: 9.591262}
  - {x: -12.462725, y: -0.25690275, z: 7.591262}
  - {x: -6.699201, y: 1.968914, z: 9.591262}
  - {x: -6.699201, y: 1.968914, z: 7.591262}
  - {x: -8.699201, y: 1.968914, z: 9.591262}
  - {x: -8.699201, y: 1.968914, z: 7.591262}
  - {x: -8.699201, y: -0.25690275, z: 9.591262}
  - {x: -8.699201, y: -0.25690275, z: 7.591262}
  - {x: -10.462725, y: 1.968914, z: 1}
  - {x: -10.462725, y: 1.968914, z: -1}
  - {x: -10.462725, y: -0.25690275, z: 1}
  - {x: -10.462725, y: -0.25690275, z: -1}
  - {x: -12.462725, y: -0.25690275, z: 1}
  - {x: -12.462725, y: -0.25690275, z: -1}
  - {x: -6.699201, y: 1.968914, z: 1}
  - {x: -6.699201, y: 1.968914, z: -1}
  - {x: -8.699201, y: 1.968914, z: 1}
  - {x: -8.699201, y: 1.968914, z: -1}
  - {x: -8.699201, y: -0.25690275, z: 1}
  - {x: -8.699201, y: -0.25690275, z: -1}
  - {x: -4.7635236, y: 1.968914, z: 1}
  - {x: -4.7635236, y: 1.968914, z: -1}
  - {x: -2.7635236, y: 1.968914, z: 1}
  - {x: -2.7635236, y: 1.968914, z: -1}
  - {x: 1, y: 1.968914, z: 1}
  - {x: 1, y: 1.968914, z: -1}
  - {x: -1, y: 1.968914, z: 1}
  - {x: -1, y: 1.968914, z: -1}
  - {x: -18.05592, y: 1.968914, z: 1}
  - {x: -18.05592, y: 1.968914, z: -1}
  - {x: -18.05592, y: -0.25690275, z: 1}
  - {x: -18.05592, y: -0.25690275, z: -1}
  - {x: -20.05592, y: 1.968914, z: 1}
  - {x: -20.05592, y: 1.968914, z: -1}
  - {x: -20.05592, y: -0.25690275, z: 1}
  - {x: -20.05592, y: -0.25690275, z: -1}
  - {x: -14.292396, y: 1.968914, z: 1}
  - {x: -14.292396, y: 1.968914, z: -1}
  - {x: -14.292396, y: -0.25690275, z: 1}
  - {x: -14.292396, y: -0.25690275, z: -1}
  - {x: -16.292395, y: 1.968914, z: 1}
  - {x: -16.292395, y: 1.968914, z: -1}
  - {x: -16.292395, y: -0.25690275, z: 1}
  - {x: -16.292395, y: -0.25690275, z: -1}
  - {x: -12.462725, y: 1.968914, z: 1}
  - {x: -12.462725, y: 1.968914, z: -1}
  - {x: -10.462725, y: 1.968914, z: 5.1962786}
  - {x: -10.462725, y: 1.968914, z: 3.1962786}
  - {x: -10.462725, y: -0.25690275, z: 5.1962786}
  - {x: -10.462725, y: -0.25690275, z: 3.1962786}
  - {x: -12.462725, y: -0.25690275, z: 5.1962786}
  - {x: -12.462725, y: -0.25690275, z: 3.1962786}
  - {x: -6.699201, y: 1.968914, z: 5.1962786}
  - {x: -6.699201, y: 1.968914, z: 3.1962786}
  - {x: -8.699201, y: 1.968914, z: 5.1962786}
  - {x: -8.699201, y: 1.968914, z: 3.1962786}
  - {x: -8.699201, y: -0.25690275, z: 5.1962786}
  - {x: -8.699201, y: -0.25690275, z: 3.1962786}
  - {x: -4.7635236, y: 1.968914, z: 5.1962786}
  - {x: -4.7635236, y: 1.968914, z: 3.1962786}
  - {x: -2.7635236, y: 1.968914, z: 5.1962786}
  - {x: -2.7635236, y: 1.968914, z: 3.1962786}
  - {x: 1, y: 1.968914, z: 5.1962786}
  - {x: 1, y: 1.968914, z: 3.1962786}
  - {x: -1, y: 1.968914, z: 5.1962786}
  - {x: -1, y: 1.968914, z: 3.1962786}
  - {x: -18.05592, y: 1.968914, z: 5.1962786}
  - {x: -18.05592, y: 1.968914, z: 3.1962786}
  - {x: -18.05592, y: -0.25690275, z: 5.1962786}
  - {x: -18.05592, y: -0.25690275, z: 3.1962786}
  - {x: -20.05592, y: 1.968914, z: 5.1962786}
  - {x: -20.05592, y: 1.968914, z: 3.1962786}
  - {x: -20.05592, y: -0.25690275, z: 5.1962786}
  - {x: -20.05592, y: -0.25690275, z: 3.1962786}
  - {x: -14.292396, y: 1.968914, z: 5.1962786}
  - {x: -14.292396, y: 1.968914, z: 3.1962786}
  - {x: -14.292396, y: -0.25690275, z: 5.1962786}
  - {x: -14.292396, y: -0.25690275, z: 3.1962786}
  - {x: -16.292395, y: 1.968914, z: 5.1962786}
  - {x: -16.292395, y: 1.968914, z: 3.1962786}
  - {x: -16.292395, y: -0.25690275, z: 5.1962786}
  - {x: -16.292395, y: -0.25690275, z: 3.1962786}
  - {x: -12.462725, y: 1.968914, z: 5.1962786}
  - {x: -12.462725, y: 1.968914, z: 3.1962786}
  - {x: -18.05592, y: 1.968914, z: 9.591262}
  - {x: -18.05592, y: 1.968914, z: 7.591262}
  - {x: -18.05592, y: -0.25690275, z: 9.591262}
  - {x: -18.05592, y: -0.25690275, z: 7.591262}
  - {x: -20.05592, y: 1.968914, z: 9.591262}
  - {x: -20.05592, y: 1.968914, z: 7.591262}
  - {x: -20.05592, y: -0.25690275, z: 9.591262}
  - {x: -20.05592, y: -0.25690275, z: 7.591262}
  - {x: -14.292396, y: 1.968914, z: 9.591262}
  - {x: -14.292396, y: 1.968914, z: 7.591262}
  - {x: -14.292396, y: -0.25690275, z: 9.591262}
  - {x: -14.292396, y: -0.25690275, z: 7.591262}
  - {x: -16.292395, y: 1.968914, z: 9.591262}
  - {x: -16.292395, y: 1.968914, z: 7.591262}
  - {x: -16.292395, y: -0.25690275, z: 9.591262}
  - {x: -16.292395, y: -0.25690275, z: 7.591262}
  - {x: -2.7635236, y: 1.968914, z: 9.591262}
  - {x: -2.7635236, y: 1.968914, z: 7.591262}
  - {x: -4.7635236, y: 1.968914, z: 9.591262}
  - {x: -4.7635236, y: 1.968914, z: 7.591262}
  - {x: 1, y: 1.968914, z: 9.591262}
  - {x: 1, y: 1.968914, z: 7.591262}
  - {x: -1, y: 1.968914, z: 9.591262}
  - {x: -1, y: 1.968914, z: 7.591262}
  - {x: -10.462725, y: 1.968914, z: 9.591262}
  - {x: -10.462725, y: 1.968914, z: 7.591262}
  - {x: -10.462725, y: -0.25690275, z: 9.591262}
  - {x: -10.462725, y: -0.25690275, z: 7.591262}
  - {x: -12.462725, y: 1.968914, z: 9.591262}
  - {x: -12.462725, y: 1.968914, z: 7.591262}
  - {x: -12.462725, y: -0.25690275, z: 9.591262}
  - {x: -12.462725, y: -0.25690275, z: 7.591262}
  - {x: -6.699201, y: 1.968914, z: 9.591262}
  - {x: -6.699201, y: 1.968914, z: 7.591262}
  - {x: -8.699201, y: 1.968914, z: 9.591262}
  - {x: -8.699201, y: 1.968914, z: 7.591262}
  - {x: -8.699201, y: -0.25690275, z: 9.591262}
  - {x: -8.699201, y: -0.25690275, z: 7.591262}
  - {x: -10.462725, y: 1.968914, z: 1}
  - {x: -10.462725, y: 1.968914, z: -1}
  - {x: -10.462725, y: -0.25690275, z: 1}
  - {x: -10.462725, y: -0.25690275, z: -1}
  - {x: -12.462725, y: -0.25690275, z: 1}
  - {x: -12.462725, y: -0.25690275, z: -1}
  - {x: -6.699201, y: 1.968914, z: 1}
  - {x: -6.699201, y: 1.968914, z: -1}
  - {x: -8.699201, y: 1.968914, z: 1}
  - {x: -8.699201, y: 1.968914, z: -1}
  - {x: -8.699201, y: -0.25690275, z: 1}
  - {x: -8.699201, y: -0.25690275, z: -1}
  - {x: -4.7635236, y: 1.968914, z: 1}
  - {x: -4.7635236, y: 1.968914, z: -1}
  - {x: -2.7635236, y: 1.968914, z: 1}
  - {x: -2.7635236, y: 1.968914, z: -1}
  - {x: 1, y: 1.968914, z: 1}
  - {x: 1, y: 1.968914, z: -1}
  - {x: -1, y: 1.968914, z: 1}
  - {x: -1, y: 1.968914, z: -1}
  - {x: -18.05592, y: 1.968914, z: 1}
  - {x: -18.05592, y: 1.968914, z: -1}
  - {x: -18.05592, y: -0.25690275, z: 1}
  - {x: -18.05592, y: -0.25690275, z: -1}
  - {x: -20.05592, y: 1.968914, z: 1}
  - {x: -20.05592, y: 1.968914, z: -1}
  - {x: -20.05592, y: -0.25690275, z: 1}
  - {x: -20.05592, y: -0.25690275, z: -1}
  - {x: -14.292396, y: 1.968914, z: 1}
  - {x: -14.292396, y: 1.968914, z: -1}
  - {x: -14.292396, y: -0.25690275, z: 1}
  - {x: -14.292396, y: -0.25690275, z: -1}
  - {x: -16.292395, y: 1.968914, z: 1}
  - {x: -16.292395, y: 1.968914, z: -1}
  - {x: -16.292395, y: -0.25690275, z: 1}
  - {x: -16.292395, y: -0.25690275, z: -1}
  - {x: -12.462725, y: 1.968914, z: 1}
  - {x: -12.462725, y: 1.968914, z: -1}
  - {x: -10.462725, y: 1.968914, z: 5.1962786}
  - {x: -10.462725, y: 1.968914, z: 3.1962786}
  - {x: -10.462725, y: -0.25690275, z: 5.1962786}
  - {x: -10.462725, y: -0.25690275, z: 3.1962786}
  - {x: -12.462725, y: -0.25690275, z: 5.1962786}
  - {x: -12.462725, y: -0.25690275, z: 3.1962786}
  - {x: -6.699201, y: 1.968914, z: 5.1962786}
  - {x: -6.699201, y: 1.968914, z: 3.1962786}
  - {x: -8.699201, y: 1.968914, z: 5.1962786}
  - {x: -8.699201, y: 1.968914, z: 3.1962786}
  - {x: -8.699201, y: -0.25690275, z: 5.1962786}
  - {x: -8.699201, y: -0.25690275, z: 3.1962786}
  - {x: -4.7635236, y: 1.968914, z: 5.1962786}
  - {x: -4.7635236, y: 1.968914, z: 3.1962786}
  - {x: -2.7635236, y: 1.968914, z: 5.1962786}
  - {x: -2.7635236, y: 1.968914, z: 3.1962786}
  - {x: 1, y: 1.968914, z: 5.1962786}
  - {x: 1, y: 1.968914, z: 3.1962786}
  - {x: -1, y: 1.968914, z: 5.1962786}
  - {x: -1, y: 1.968914, z: 3.1962786}
  - {x: -18.05592, y: 1.968914, z: 5.1962786}
  - {x: -18.05592, y: 1.968914, z: 3.1962786}
  - {x: -18.05592, y: -0.25690275, z: 5.1962786}
  - {x: -18.05592, y: -0.25690275, z: 3.1962786}
  - {x: -20.05592, y: 1.968914, z: 5.1962786}
  - {x: -20.05592, y: 1.968914, z: 3.1962786}
  - {x: -20.05592, y: -0.25690275, z: 5.1962786}
  - {x: -20.05592, y: -0.25690275, z: 3.1962786}
  - {x: -14.292396, y: 1.968914, z: 5.1962786}
  - {x: -14.292396, y: 1.968914, z: 3.1962786}
  - {x: -14.292396, y: -0.25690275, z: 5.1962786}
  - {x: -14.292396, y: -0.25690275, z: 3.1962786}
  - {x: -16.292395, y: 1.968914, z: 5.1962786}
  - {x: -16.292395, y: 1.968914, z: 3.1962786}
  - {x: -16.292395, y: -0.25690275, z: 5.1962786}
  - {x: -16.292395, y: -0.25690275, z: 3.1962786}
  - {x: -12.462725, y: 1.968914, z: 5.1962786}
  - {x: -12.462725, y: 1.968914, z: 3.1962786}
